filename,width,height,class,xmin,ymin,xmax,ymax
image0.jpg,640,480,yellowCube,371,152,482,237
image0.jpg,640,480,yellowCube,357,236,466,322
image0.jpg,640,480,whiteBall,440,205,639,427
image40.jpg,640,480,yellowCube,375,153,480,239
image40.jpg,640,480,yellowCube,359,237,470,322
image40.jpg,640,480,whiteBall,439,206,639,425
image52.jpg,640,480,yellowCube,339,229,467,338
image52.jpg,640,480,whiteBall,443,210,639,427
image52.jpg,640,480,whiteBall,575,211,640,369
image65.jpg,640,480,yellowCube,348,240,467,359
image65.jpg,640,480,whiteBall,442,206,640,423
image81.jpg,640,480,yellowCube,351,243,468,358
image81.jpg,640,480,whiteBall,442,209,639,423
image92.jpg,640,480,yellowCube,332,222,459,358
image92.jpg,640,480,whiteBall,443,207,639,427
image104.jpg,640,480,whiteBall,349,207,565,425
image104.jpg,640,480,yellowCube,507,231,593,319
image104.jpg,640,480,whiteBall,574,208,640,382
image117.jpg,640,480,yellowCube,343,244,470,361
image117.jpg,640,480,yellowCube,531,229,617,322
image117.jpg,640,480,whiteBall,580,202,640,382
image117.jpg,640,480,whiteBall,106,200,291,400
image128.jpg,640,480,whiteBall,1,198,108,387
image128.jpg,640,480,yellowCube,342,243,470,360
image128.jpg,640,480,whiteBall,442,203,579,336
image128.jpg,640,480,yellowCube,527,232,623,321
image153.jpg,640,480,whiteBall,154,204,343,397
image153.jpg,640,480,whiteBall,350,198,446,278
image153.jpg,640,480,yellowCube,342,248,466,358
image153.jpg,640,480,yellowCube,526,230,622,326
image165.jpg,640,480,whiteBall,290,191,365,259
image165.jpg,640,480,whiteBall,354,209,580,436
image165.jpg,640,480,yellowCube,521,232,621,324
image178.jpg,640,480,yellowCube,216,224,364,364
image178.jpg,640,480,whiteBall,478,207,639,477
image178.jpg,640,480,whiteBall,248,196,316,254
image189.jpg,640,480,whiteBall,357,220,638,477
image189.jpg,640,480,yellowCube,224,240,367,364
image201.jpg,640,480,yellowCube,220,240,367,364
image201.jpg,640,480,whiteBall,323,218,638,478
image201.jpg,640,480,yellowCube,501,231,619,330
image223.jpg,640,480,yellowCube,223,241,365,366
image223.jpg,640,480,yellowCube,505,233,622,339
image223.jpg,640,480,whiteBall,326,221,634,480
image225.jpg,640,480,yellowCube,231,94,397,206
image225.jpg,640,480,yellowCube,226,245,359,369
image225.jpg,640,480,whiteBall,336,224,638,478
image236.jpg,640,480,whiteBall,337,217,637,476
image236.jpg,640,480,yellowCube,226,251,361,370
image236.jpg,640,480,yellowCube,227,131,369,253
image249.jpg,640,480,yellowCube,228,134,370,262
image249.jpg,640,480,whiteBall,188,225,434,450
image249.jpg,640,480,whiteBall,491,202,638,394
image262.jpg,640,480,yellowCube,227,133,371,256
image262.jpg,640,480,yellowCube,226,257,365,366
image262.jpg,640,480,whiteBall,349,207,557,412
image262.jpg,640,480,whiteBall,499,207,637,391
image274.jpg,640,480,yellowCube,226,132,374,256
image274.jpg,640,480,yellowCube,227,253,363,368
image274.jpg,640,480,whiteBall,539,208,638,469
image285.jpg,640,480,yellowCube,229,134,368,261
image285.jpg,640,480,whiteBall,216,217,417,414
image285.jpg,640,480,whiteBall,589,254,640,476
image296.jpg,640,480,yellowCube,254,90,429,254
image296.jpg,640,480,yellowCube,227,248,362,362
image296.jpg,640,480,whiteBall,609,280,639,470
image309.jpg,640,480,yellowCube,218,142,362,265
image309.jpg,640,480,yellowCube,261,260,461,434
image309.jpg,640,480,whiteBall,597,267,640,473
image320.jpg,640,480,yellowCube,246,122,443,272
image320.jpg,640,480,yellowCube,262,270,459,435
image320.jpg,640,480,whiteBall,600,267,639,469
image344.jpg,640,480,whiteBall,153,199,277,330
image344.jpg,640,480,yellowCube,245,119,443,272
image344.jpg,640,480,yellowCube,265,265,463,432
image344.jpg,640,480,whiteBall,599,261,640,475
image356.jpg,640,480,yellowCube,248,118,441,269
image356.jpg,640,480,yellowCube,258,272,459,431
image356.jpg,640,480,whiteBall,196,195,291,300
image356.jpg,640,480,whiteBall,599,268,640,472
image369.jpg,640,480,yellowCube,248,118,437,273
image369.jpg,640,480,yellowCube,259,274,463,430
image369.jpg,640,480,whiteBall,118,195,210,284
image369.jpg,640,480,whiteBall,599,268,638,475
image380.jpg,640,480,yellowCube,248,119,443,272
image380.jpg,640,480,yellowCube,261,275,460,432
image380.jpg,640,480,whiteBall,94,190,178,279
image380.jpg,640,480,whiteBall,600,268,640,474
image399.jpg,640,480,yellowCube,246,118,442,270
image399.jpg,640,480,yellowCube,262,270,456,432
image399.jpg,640,480,whiteBall,597,264,640,473
image399.jpg,640,480,whiteBall,127,190,201,266
image400.jpg,640,480,whiteBall,232,189,298,251
image400.jpg,640,480,yellowCube,246,124,443,275
image400.jpg,640,480,yellowCube,259,274,467,434
image400.jpg,640,480,whiteBall,598,270,639,475
image417.jpg,640,480,yellowCube,263,256,459,436
image417.jpg,640,480,yellowCube,345,147,453,253
image417.jpg,640,480,whiteBall,299,193,356,255
image417.jpg,640,480,whiteBall,599,271,640,474
image430.jpg,640,480,yellowCube,261,260,461,432
image430.jpg,640,480,yellowCube,259,204,334,274
image430.jpg,640,480,whiteBall,340,190,399,250
image430.jpg,640,480,whiteBall,599,267,639,478
image452.jpg,640,480,yellowCube,251,212,329,280
image452.jpg,640,480,whiteBall,368,188,426,251
image452.jpg,640,480,whiteBall,600,272,640,475
image466.jpg,640,480,yellowCube,252,214,332,278
image466.jpg,640,480,whiteBall,365,192,419,248
image466.jpg,640,480,whiteBall,598,269,640,474
image477.jpg,640,480,yellowCube,250,215,332,279
image477.jpg,640,480,whiteBall,365,192,419,249
image477.jpg,640,480,whiteBall,538,203,640,367
image495.jpg,640,480,yellowCube,256,215,329,278
image495.jpg,640,480,whiteBall,362,192,417,249
image495.jpg,640,480,whiteBall,480,196,561,278
image508.jpg,640,480,yellowCube,252,215,327,277
image508.jpg,640,480,whiteBall,361,193,418,247
image508.jpg,640,480,whiteBall,481,195,551,262
image518.jpg,640,480,yellowCube,361,182,425,241
image518.jpg,640,480,whiteBall,491,196,569,272
image531.jpg,640,480,whiteBall,360,188,419,247
image531.jpg,640,480,yellowCube,382,217,450,270
image543.jpg,640,480,whiteBall,363,193,412,243
image543.jpg,640,480,yellowCube,380,214,450,271
image543.jpg,640,480,whiteBall,377,146,445,213
image556.jpg,640,480,whiteBall,369,145,443,214
image556.jpg,640,480,yellowCube,380,211,449,266
image568.jpg,640,480,whiteBall,35,134,140,238
image568.jpg,640,480,whiteBall,369,145,444,217
image568.jpg,640,480,yellowCube,382,216,447,268
image584.jpg,640,480,whiteBall,251,197,357,306
image584.jpg,640,480,whiteBall,371,147,445,216
image584.jpg,640,480,yellowCube,381,217,448,270
image592.jpg,640,480,whiteBall,337,201,436,299
image592.jpg,640,480,yellowCube,398,214,449,266
image592.jpg,640,480,whiteBall,369,143,444,216
image605.jpg,640,480,yellowCube,378,210,452,271
image605.jpg,640,480,whiteBall,471,200,582,314
image620.jpg,640,480,whiteBall,373,148,439,214
image620.jpg,640,480,yellowCube,379,215,444,267
image620.jpg,640,480,whiteBall,478,202,623,345
image633.jpg,640,480,whiteBall,371,146,446,215
image633.jpg,640,480,yellowCube,384,216,448,268
image633.jpg,640,480,whiteBall,488,201,639,378
image641.jpg,640,480,whiteBall,371,149,445,216
image641.jpg,640,480,yellowCube,382,215,447,268
image641.jpg,640,480,whiteBall,486,201,639,381
image652.jpg,640,480,whiteBall,398,212,613,424
image652.jpg,640,480,yellowCube,380,213,446,269
image652.jpg,640,480,whiteBall,372,142,444,216
image663.jpg,640,480,yellowCube,463,236,549,322
image663.jpg,640,480,whiteBall,477,210,639,436
image663.jpg,640,480,yellowCube,381,217,449,268
image663.jpg,640,480,whiteBall,370,145,444,222
image668.jpg,640,480,whiteBall,372,147,445,218
image668.jpg,640,480,yellowCube,381,218,449,269
image668.jpg,640,480,yellowCube,464,235,547,318
image668.jpg,640,480,whiteBall,471,214,639,433
image675.jpg,640,480,yellowCube,381,210,445,275
image675.jpg,640,480,whiteBall,285,120,404,232
image675.jpg,640,480,yellowCube,461,232,563,325
image675.jpg,640,480,whiteBall,551,218,639,464
image687.jpg,640,480,whiteBall,308,209,534,442
image687.jpg,640,480,yellowCube,458,235,556,323
image687.jpg,640,480,whiteBall,551,218,639,451
image694.jpg,640,480,whiteBall,330,214,614,477
image694.jpg,640,480,whiteBall,583,223,638,426
image706.jpg,640,480,yellowCube,194,240,364,397
image706.jpg,640,480,whiteBall,377,221,638,478
image717.jpg,640,480,yellowCube,206,249,386,408
image717.jpg,640,480,whiteBall,384,217,640,476
image745.jpg,640,480,whiteBall,382,220,638,479
image745.jpg,640,480,yellowCube,208,251,386,408
image758.jpg,640,480,yellowCube,210,248,383,403
image758.jpg,640,480,whiteBall,385,215,639,477
image771.jpg,640,480,yellowCube,210,248,387,406
image771.jpg,640,480,whiteBall,385,220,639,476
image837.jpg,640,480,whiteBall,383,220,638,477
image837.jpg,640,480,yellowCube,207,250,387,407
image843.jpg,640,480,whiteBall,320,209,527,428
image843.jpg,640,480,yellowCube,206,252,369,406
image843.jpg,640,480,yellowCube,462,232,555,322
image843.jpg,640,480,whiteBall,573,214,640,422
image847.jpg,640,480,whiteBall,318,210,532,431
image847.jpg,640,480,yellowCube,207,252,370,401
image847.jpg,640,480,yellowCube,468,235,558,323
image847.jpg,640,480,whiteBall,571,219,639,424
image854.jpg,640,480,yellowCube,128,211,333,389
image854.jpg,640,480,whiteBall,476,202,638,377
image866.jpg,640,480,yellowCube,231,272,462,478
image866.jpg,640,480,whiteBall,384,206,527,347
image878.jpg,640,480,yellowCube,228,271,459,480
image878.jpg,640,480,whiteBall,276,204,409,318
image878.jpg,640,480,yellowCube,459,225,563,328
