{
    "os": "Linux-5.16.9-200.fc35.x86_64-x86_64-with-glibc2.34",
    "python": "3.9.7",
    "heartbeatAt": "2022-02-28T15:05:22.892338",
    "startedAt": "2022-02-28T15:05:21.952749",
    "docker": null,
    "cpu_count": 12,
    "cuda": null,
    "args": [
        "--img",
        "640",
        "--batch",
        "16",
        "--epochs",
        "3",
        "--data",
        "cubes-and-balls-again-2/data.yaml",
        "--weights",
        "./yolov5s.pt"
    ],
    "state": "running",
    "program": "/home/raameshb/Documents/GitRepos/PhantomCI/PhantomCode/src/main/java/org/firstinspires/ftc/teamcode/util/vision/ai/./yolov5-master/train.py",
    "codePath": "PhantomCode/src/main/java/org/firstinspires/ftc/teamcode/util/vision/ai/yolov5-master/train.py",
    "git": {
        "remote": "https://gitlab.com/RaameshB/phantom-ci.git",
        "commit": "83a6569f3f0a02b4e16ba837a4d969e3a6da79af"
    },
    "email": null,
    "root": "/home/raameshb/Documents/GitRepos/PhantomCI",
    "host": "fedora",
    "username": "raameshb",
    "executable": "/home/raameshb/anaconda3/envs/ftc/bin/python"
}
